entry -> Block_1 [constraint=false];
Block_1 -> IfStmt_1 [constraint=false];
IfStmt_1 -> BooleanLiteral_1 [constraint=false];
BooleanLiteral_1 -> exit [constraint=false];
BooleanLiteral_1 -> Block_2;
Block_2 -> VarDeclStmt_1 [constraint=false];
VarDeclStmt_1 -> VariableDeclaration_1 [constraint=false];
VariableDeclaration_1 -> IfStmt_2;
IfStmt_2 -> BooleanLiteral_2 [constraint=false];
BooleanLiteral_2 -> Block_3;
BooleanLiteral_2 -> VarDeclStmt_3 [constraint=false];
VarDeclStmt_3 -> VariableDeclaration_3 [constraint=false];
Block_3 -> VarDeclStmt_2 [constraint=false];
VarDeclStmt_2 -> VariableDeclaration_2 [constraint=false];
VariableDeclaration_3 -> exit [constraint=false];
VariableDeclaration_2 -> VarDeclStmt_3 [constraint=false];
