entry -> Block_1 [constraint=false];
Block_1 -> VarDeclStmt_1 [constraint=false];
VarDeclStmt_1 -> VariableDeclaration_1 [constraint=false];
VariableDeclaration_1 -> IntegerLiteral_1 [constraint=false];
IntegerLiteral_1 -> WhileStmt_1 [constraint=false];
WhileStmt_1 -> GTExpr_1 [constraint=false];
GTExpr_1 -> VarAccess_1 [constraint=false];
VarAccess_1 -> IntegerLiteral_2;
IntegerLiteral_2 -> exit [constraint=false];
IntegerLiteral_2 -> Block_2 [constraint=false];
Block_2 -> ContinueStmt_1 [constraint=false];
ContinueStmt_1 -> WhileStmt_1 [constraint=false];
