entry -> Block_1 [constraint=false];
Block_1 -> VarDeclStmt_1 [constraint=false];
VarDeclStmt_1 -> VariableDeclaration_1 [constraint=false];
VariableDeclaration_1 -> IntegerLiteral_1 [constraint=false];
IntegerLiteral_1 -> TryStmt_1 [constraint=false];
TryStmt_1 -> Block_2 [constraint=false];
Block_2 -> ExprStmt_1 [constraint=false];
ExprStmt_1 -> AssignSimpleExpr_1 [constraint=false];
AssignSimpleExpr_1 -> MethodAccess_1 [constraint=false];
MethodAccess_1 -> Block_3 [constraint=false];
MethodAccess_1 -> VarAccess_1;
Block_3 -> ExprStmt_2 [constraint=false];
VarAccess_1 -> ExprStmt_3 [constraint=false];
ExprStmt_2 -> AssignSimpleExpr_2 [constraint=false];
ExprStmt_3 -> AssignSimpleExpr_3 [constraint=false];
AssignSimpleExpr_2 -> IntegerLiteral_2 [constraint=false];
AssignSimpleExpr_3 -> IntegerLiteral_3 [constraint=false];
IntegerLiteral_2 -> VarAccess_2;
IntegerLiteral_3 -> VarAccess_3;
VarAccess_2 -> ExprStmt_3 [constraint=false];
VarAccess_3 -> exit [constraint=false];
