entry -> Block_1 [constraint=false];
Block_1 -> TryStmt_1 [constraint=false];
TryStmt_1 -> Block_2 [constraint=false];
Block_2 -> TryStmt_2 [constraint=false];
TryStmt_2 -> Block_3 [constraint=false];
Block_3 -> VarDeclStmt_1 [constraint=false];
VarDeclStmt_1 -> VariableDeclaration_1 [constraint=false];
VariableDeclaration_1 -> ThrowStmt_1;
ThrowStmt_1 -> ClassInstanceExpr_1 [constraint=false];
ClassInstanceExpr_1 -> TypeAccess_1 [constraint=false];
TypeAccess_1 -> Block_5 [constraint=false];
Block_5 -> VarDeclStmt_3 [constraint=false];
VarDeclStmt_3 -> VariableDeclaration_3 [constraint=false];
VariableDeclaration_3 -> exit [constraint=false];
