entry -> Block_1 [constraint=false];
Block_1 -> VarDeclStmt_1 [constraint=false];
VarDeclStmt_1 -> VariableDeclaration_1 [constraint=false];
VariableDeclaration_1 -> BooleanLiteral_1 [constraint=false];
BooleanLiteral_1 -> DoStmt_1 [constraint=false];
DoStmt_1 -> Block_2 [constraint=false];
Block_2 -> VarDeclStmt_2 [constraint=false];
VarDeclStmt_2 -> VariableDeclaration_2 [constraint=false];
VariableDeclaration_2 -> TryStmt_1;
TryStmt_1 -> Block_3 [constraint=false];
Block_3 -> VarDeclStmt_3 [constraint=false];
VarDeclStmt_3 -> VariableDeclaration_3 [constraint=false];
VariableDeclaration_3 -> TryStmt_2;
TryStmt_2 -> Block_4 [constraint=false];
Block_4 -> VarDeclStmt_4 [constraint=false];
VarDeclStmt_4 -> VariableDeclaration_4 [constraint=false];
VariableDeclaration_4 -> IfStmt_1;
IfStmt_1 -> VarAccess_1 [constraint=false];
VarAccess_1 -> BreakStmt_1;
VarAccess_1 -> Block_5 [constraint=false];
BreakStmt_1 -> Block_5 [constraint=false];
Block_5 -> VarDeclStmt_5 [constraint=false];
VarDeclStmt_5 -> VariableDeclaration_5 [constraint=false];
VariableDeclaration_5 -> Block_6 [constraint=false];
VariableDeclaration_5 -> VarDeclStmt_6 [constraint=false];
Block_6 -> VarDeclStmt_7 [constraint=false];
VarDeclStmt_7 -> VariableDeclaration_7 [constraint=false];
VarDeclStmt_6 -> VariableDeclaration_6 [constraint=false];
VariableDeclaration_6 -> Block_6 [constraint=false];
VariableDeclaration_7 -> VarDeclStmt_8 [constraint=false];
VarDeclStmt_8 -> VariableDeclaration_8 [constraint=false];
VariableDeclaration_7 -> VarDeclStmt_9 [constraint=false];
VarDeclStmt_9 -> VariableDeclaration_9 [constraint=false];
VariableDeclaration_8 -> VarAccess_2 [constraint=false];
VariableDeclaration_9 -> exit [constraint=false];
VarAccess_2 -> VarDeclStmt_9 [constraint=false];
VarAccess_2 -> Block_2;
