entry -> Block_1 [constraint=false];
Block_1 -> VarDeclStmt_1 [constraint=false];
VarDeclStmt_1 -> VariableDeclaration_1 [constraint=false];
VariableDeclaration_1 -> ClassInstanceExpr_1 [constraint=false];
ClassInstanceExpr_1 -> ParTypeAccess_2 [constraint=false];
ParTypeAccess_2 -> EnhancedForStmt_1 [constraint=false];
EnhancedForStmt_1 -> VarAccess_1 [constraint=false];
VarAccess_1 -> VariableDeclaration_2;
VarAccess_1 -> VarDeclStmt_3 [constraint=false];
VarDeclStmt_3 -> VariableDeclaration_4 [constraint=false];
VariableDeclaration_2 -> Block_2;
VariableDeclaration_4 -> exit [constraint=false];
Block_2 -> VarDeclStmt_2 [constraint=false];
VarDeclStmt_2 -> VariableDeclaration_3 [constraint=false];
VariableDeclaration_3 -> VarAccess_1 [constraint=false];
