entry -> ParameterDeclaration_1 [constraint=false];
ParameterDeclaration_1 -> ParameterDeclaration_2;
ParameterDeclaration_2 -> ParameterDeclaration_3;
ParameterDeclaration_3 -> ParameterDeclaration_4;
ParameterDeclaration_4 -> Block_1 [constraint=false];
Block_1 -> VarDeclStmt_1 [constraint=false];
VarDeclStmt_1 -> VariableDeclaration_1 [constraint=false];
VariableDeclaration_1 -> ExprStmt_1;
ExprStmt_1 -> AssignSimpleExpr_1 [constraint=false];
AssignSimpleExpr_1 -> OrLogicalExpr_1 [constraint=false];
OrLogicalExpr_1 -> AndLogicalExpr_1 [constraint=false];
AndLogicalExpr_1 -> LogNotExpr_1 [constraint=false];
LogNotExpr_1 -> ParExpr_1 [constraint=false];
ParExpr_1 -> GTExpr_1 [constraint=false];
GTExpr_1 -> VarAccess_2 [constraint=false];
VarAccess_2 -> IntegerLiteral_1;
IntegerLiteral_1 -> LogNotExpr_2 [constraint=false];
IntegerLiteral_1 -> AndLogicalExpr_2 [constraint=false];
LogNotExpr_2 -> ParExpr_2 [constraint=false];
AndLogicalExpr_2 -> GTExpr_3 [constraint=false];
ParExpr_2 -> GTExpr_2 [constraint=false];
GTExpr_3 -> VarAccess_4 [constraint=false];
GTExpr_2 -> VarAccess_3 [constraint=false];
VarAccess_4 -> IntegerLiteral_3;
VarAccess_3 -> IntegerLiteral_2;
IntegerLiteral_3 -> GTExpr_4 [constraint=false];
IntegerLiteral_3 -> VarAccess_1 [constraint=false];
IntegerLiteral_2 -> VarAccess_1 [constraint=false];
IntegerLiteral_2 -> AndLogicalExpr_2 [constraint=false];
GTExpr_4 -> VarAccess_5 [constraint=false];
VarAccess_1 -> exit [constraint=false];
VarAccess_5 -> IntegerLiteral_4;
IntegerLiteral_4 -> VarAccess_1 [constraint=false];
