entry -> Block_1:name [constraint=false];
Block_1:succ -> TryStmt_1:name [constraint=false];
TryStmt_1:succ -> Block_2:name [constraint=false];
Block_2:succ -> ExprStmt_1:name [constraint=false];
ExprStmt_1:succ -> MethodAccess_1:name [constraint=false];
MethodAccess_1:succ -> Block_3:name [constraint=false];
MethodAccess_1:succ -> exit [constraint=false];
Block_3:succ -> ExprStmt_2:name [constraint=false];
ExprStmt_2:succ -> MethodAccess_2:name [constraint=false];
MethodAccess_2:succ -> EmptyStmt_1:name [constraint=false];
MethodAccess_2:succ -> exit [constraint=false];
EmptyStmt_1:succ -> exit [constraint=false];
