entry -> Block_1 [constraint=false];
Block_1 -> VarDeclStmt_1 [constraint=false];
VarDeclStmt_1 -> VariableDeclaration_1 [constraint=false];
VariableDeclaration_1 -> ClassInstanceExpr_1 [constraint=false];
ClassInstanceExpr_1 -> ParTypeAccess_2 [constraint=false];
ParTypeAccess_2 -> EnhancedForStmt_1 [constraint=false];
EnhancedForStmt_1 -> VarAccess_1 [constraint=false];
VarAccess_1 -> VariableDeclaration_2;
VarAccess_1 -> VarDeclStmt_4 [constraint=false];
VarDeclStmt_4 -> VariableDeclaration_5 [constraint=false];
VariableDeclaration_2 -> Block_2;
VariableDeclaration_5 -> ExprStmt_1;
Block_2 -> VarDeclStmt_2 [constraint=false];
VarDeclStmt_2 -> VariableDeclaration_3 [constraint=false];
ExprStmt_1 -> AssignSimpleExpr_1 [constraint=false];
VariableDeclaration_3 -> IntegerLiteral_1 [constraint=false];
AssignSimpleExpr_1 -> IntegerLiteral_3 [constraint=false];
IntegerLiteral_1 -> IfStmt_1 [constraint=false];
IntegerLiteral_3 -> VarAccess_3;
IfStmt_1 -> Dot_1 [constraint=false];
VarAccess_3 -> exit [constraint=false];
Dot_1 -> VarAccess_2 [constraint=false];
VarAccess_2 -> MethodAccess_1;
MethodAccess_1 -> StringLiteral_1 [constraint=false];
StringLiteral_1 -> VarDeclStmt_3 [constraint=false];
VarDeclStmt_3 -> VariableDeclaration_4 [constraint=false];
StringLiteral_1 -> BreakStmt_1 [constraint=false];
VariableDeclaration_4 -> IntegerLiteral_2 [constraint=false];
BreakStmt_1 -> VarDeclStmt_4 [constraint=false];
IntegerLiteral_2 -> VarAccess_1 [constraint=false];
