entry -> Block_1:name [constraint=false];
Block_1:succ -> ForStmt_1:name [constraint=false];
ForStmt_1:succ -> BooleanLiteral_1:name [constraint=false];
BooleanLiteral_1:succ -> exit [constraint=false];
BooleanLiteral_1:succ -> BreakStmt_1:name [constraint=false];
BreakStmt_1:succ -> exit [constraint=false];
