entry -> Block_1 [constraint=false];
Block_1 -> VarDeclStmt_1 [constraint=false];
VarDeclStmt_1 -> VariableDeclaration_1 [constraint=false];
VariableDeclaration_1 -> IntegerLiteral_1 [constraint=false];
IntegerLiteral_1 -> TryStmt_1 [constraint=false];
TryStmt_1 -> Block_2 [constraint=false];
Block_2 -> TryStmt_2 [constraint=false];
TryStmt_2 -> Block_3 [constraint=false];
Block_3 -> ExprStmt_1 [constraint=false];
ExprStmt_1 -> AssignSimpleExpr_1 [constraint=false];
AssignSimpleExpr_1 -> AddExpr_1 [constraint=false];
AddExpr_1 -> IntegerLiteral_2 [constraint=false];
IntegerLiteral_2 -> MethodAccess_1;
MethodAccess_1 -> Block_4 [constraint=false];
MethodAccess_1 -> Block_5 [constraint=false];
MethodAccess_1 -> VarAccess_1 [constraint=false];
Block_4 -> ExprStmt_2 [constraint=false];
Block_5 -> ExprStmt_4 [constraint=false];
VarAccess_1 -> ExprStmt_3 [constraint=false];
ExprStmt_2 -> AssignSimpleExpr_2 [constraint=false];
ExprStmt_4 -> AssignSimpleExpr_4 [constraint=false];
ExprStmt_3 -> AssignSimpleExpr_3 [constraint=false];
AssignSimpleExpr_2 -> IntegerLiteral_3 [constraint=false];
AssignSimpleExpr_4 -> IntegerLiteral_4 [constraint=false];
AssignSimpleExpr_3 -> MethodAccess_2 [constraint=false];
IntegerLiteral_3 -> VarAccess_2;
IntegerLiteral_4 -> VarAccess_4;
MethodAccess_2 -> VarAccess_3;
MethodAccess_2 -> Block_5 [constraint=false];
VarAccess_2 -> ExprStmt_3 [constraint=false];
VarAccess_4 -> ExprStmt_5 [constraint=false];
VarAccess_3 -> ExprStmt_5 [constraint=false];
ExprStmt_5 -> AssignSimpleExpr_5 [constraint=false];
AssignSimpleExpr_5 -> IntegerLiteral_5 [constraint=false];
IntegerLiteral_5 -> VarAccess_5;
VarAccess_5 -> exit [constraint=false];
